{
    "test": { 
        "options": { 
            "reporter": "spec",
            "clearRequiredCache": true, 
            "timeout": 10000, 
            "log": true, 
            "logErrors": true
        },
        "src": [
            "lib/test/*.js"
        ]
    }
}